{
  "resturants": [
    {
      "name": "KFC Resturant",
      "address": "Fairfax VA",
      "email": "info@kfc.com",
      "id": 1
    },
    {
      "name": "ABC Resturant",
      "address": "herndon CA",
      "email": "info@abc.com",
      "id": 2
    },
    {
      "name": "Good Food Restro",
      "address": "KTM",
      "email": "info@goodfood.com",
      "id": 3
    }
  ],
  "users": [
    {
      "name": "Raju Rana",
      "password": "abcd1234",
      "email": "ranaraju315@gmail.com",
      "id": 1
    },
    {
      "name": "Sagar",
      "password": "sagar1234",
      "email": "sagar@gmail.com",
      "id": 2
    }
  ]
}